{
  "feluri": [
    {
      "denumire": "Terci de ovaz",
      "pret": 45,
      "image": "https://www.andys.md/public/menu/thumbs/version_5/3faf58954d53f068a26f4c95e2af5d8b.jpg",
      "ingrediente": "Fulgi de ovăz, lapte, migdale, caise uscate, stafide, miere, cacao.",
      "id": 1,
      "tip": "dejun"
    },
    {
      "id": 2,
      "denumire": "Papanaşi cu gem",
      "pret": 45,
      "tip": "dejun",
      "image": "https://www.andys.md/public/menu/thumbs/version_5/d27ae4298f643adf50d9746dff2815b4.jpg",
      "ingrediente": "Papanaşi, smântână, gem de coacăze negre."
    },
    {
      "id": 3,
      "denumire": "Sandwich",
      "pret": 40,
      "tip": "dejun",
      "image": "https://www.andys.md/public/menu/thumbs/version_5/405399a83a4e19fa535a618ee402e5f5.jpg",
      "ingrediente": "Pâine albă, şuncă, sos beschamel, caşcaval, ouă de găină, condimente, frunze de spanac, unt."
    },
    {
      "id": 4,
      "denumire": "Sandwich",
      "pret": 40,
      "tip": "dejun",
      "image": "https://www.andys.md/public/menu/thumbs/version_5/309db2f184fe8d03383376b89877af4b.jpg",
      "ingrediente": "Pâine albă, şuncă, sos beschamel, caşcaval, ouă de găină, condimente, frunze de spanac, unt."
    },
    {
      "id": 5,
      "denumire": "Ham&Cheese",
      "pret": 30,
      "tip": "dejun",
      "image": "https://www.andys.md/public/menu/thumbs/version_5/c478d8494d162f655109943d81808411.jpg",
      "ingrediente": "Croissant, sos beschamel, caşcaval, şuncă."
    },
    {
      "denumire": "Croissant cu GEM",
      "pret": 15,
      "tip": "dejun",
      "image": "https://www.andys.md/public/menu/thumbs/version_2/ebddfac3f6035d727097f2dc8acbe74e.jpg",
      "ingrediente": "Croissant, gem.",
      "id": 6
    },
    {
      "id": 7,
      "denumire": "Supă-cremă de pui",
      "pret": 35,
      "tip": "prinz",
      "image": "http://clickpoftabuna.ro/wp-content/uploads/2014/12/supa-crema-ciuperci-paine-580x400.jpg",
      "ingrediente": "Bulion de pui, pulpă de pui, ciuperci champignon, sos bechamel, smântână lichidă, pătrunjel"
    },
    {
      "id": 8,
      "denumire": "Zeamă de pui",
      "pret": 55,
      "tip": "prinz",
      "image": "http://foodhouse.md/files/styles/main_image/public/product/zama.jpg",
      "ingrediente": "Bulion de pui, file de pui, verdeaţă, roşii, tăiţei de casă, pătrunjel, smântână, ardei iute."
    },
    {
      "id": 9,
      "denumire": "Soleanca",
      "pret": 65,
      "tip": "prinz",
      "image": "http://5sharov.ru/user/Image/Menu/7_holodnie_zakuski/solyanka.jpg",
      "ingrediente": "Asorti de mezeluri, carne de vită, ceapă, sos de tomate, castraveți murați, măsline negre, pătrunjel, bulion de pui. Se servește cu smântână și lămâie."
    },
    {
      "id": 10,
      "denumire": "Caesar cu file de pui",
      "pret": 65,
      "tip": "prinz",
      "image": "https://clickpoftabuna.ro/wp-content/uploads/2014/01/salata-580x400.jpg",
      "ingrediente": "Asorti de mezeluri, carne de vită, ceapă, sos de tomate, castraveți murați, măsline negre, pătrunjel, bulion de pui."
    },
    {
      "id": 11,
      "denumire": "Caesar cu creveți",
      "pret": 95,
      "tip": "prinz",
      "image": "https://t4.ftcdn.net/jpg/02/02/38/35/240_F_202383589_8gsMyJyNcunaHS61Q5DAge5h6d419tP8.jpg",
      "ingrediente": "Salată iceberg, dressing Caesar, creveți, cimbru, roșii cherry, crutoane, ou de prepelita, cașcaval Parmigiano."
    },
    {
      "id": 12,
      "denumire": "Caprese",
      "pret": 65,
      "tip": "desert",
      "image": "https://www.gimmesomeoven.com/wp-content/uploads/2013/10/Greek-Salad-with-Garlic-Lemon-Vinaigrette-1.jpg",
      "ingrediente": "Tomate roze, roșii cherry, mozzarella, sos pesto, busuioc proapsăt, ulei de măsline."
    },
    {
      "denumire": "Tiramisu",
      "pret": 35,
      "tip": "desert",
      "image": "https://img.taste.com.au/HuuWcmkM/taste/2016/11/tiramisu-with-strawberries-and-coffee-cream-32693-1.jpeg",
      "ingrediente": " Desert italian clasic pe bază de cremă de brânză mascarpone și liquer Amaretto, cu biscuiți “savoiardi, impregnați cu cafea.",
      "id": 13
    },
    {
      "id": 14,
      "denumire": "Cheesecake",
      "pret": 65,
      "tip": "desert",
      "image": "http://www.napierphotography.co.uk/Food%20and%20Drink/slides/cheesecake_031.jpg",
      "ingrediente": "Desert american tradițional din brânză Philadelphia, se servește cu gem de vișine sau din coacaze negre."
    },
    {
      "id": 15,
      "denumire": "Salată de fructe",
      "pret": 35,
      "tip": "desert",
      "image": "https://t4.ftcdn.net/jpg/01/42/22/71/240_F_142227128_uw87yjkqSNIvgjpE7pSwyt1Z0M6e84Ct.jpg",
      "ingrediente": "Mix de fructe cu kiwi, banane, portocale, piersici, ananaşi cu frişcă şi sirop grenadine"
    }
  ],
  "comments": [
    {
      "id": 1,
      "body": "some comment",
      "postId": 1
    },
    {
      "body": "some comment",
      "postId": 1,
      "id": 2
    },
    {
      "body": "some comment",
      "postId": 1,
      "id": 3
    },
    {
      "body": "some comment",
      "postId": 1,
      "id": 4
    },
    {
      "body": "some comment",
      "postId": 1,
      "id": 5
    },
    {
      "body": "some comment",
      "postId": 1,
      "id": 6
    }
  ],
  "profile": {
    "name": "typicode"
  }
}
